Hands-On Session: Math Camp Recap – 🏠 API209: Summer Math Camp
…
# A tibble: 1 × 1
  avg_height
       <dbl>
1       175.

Next, let’s compute the Body Mass Index (BMI) for each character by applying a transformation to the data. We use the mutate function to create a new variable, bmi, which is derived from the mass and height variables. Then, we select the characters’ names and their respective BMI values for display.

starwars <- starwars |> 
  mutate(bmi = mass / (height / 100)^2)

starwars |> 
  select(name, bmi)

# A tibble: 87 × 2
   name                 bmi
   <chr>              <dbl>
 1 Luke Skywalker      26.0
 2 C-3PO               26.9
 3 R2-D2               34.7
 4 Darth Vader         33.3
 5 Leia Organa         21.8
 6 Owen Lars           37.9
 7 Beru Whitesun Lars  27.5
 8 R5-D4               34.0
 9 Biggs Darklighter   25.1
10 Obi-Wan Kenobi      23.2
# ℹ 77 more rows
…
We then perform grouping and summarizing to calculate the average height for each species in the dataset. The group_by function groups the data by species, and summarise computes the average height within each group.

avg_height <- starwars |> 
  group_by(species) |> 
  summarise(
    avg_height = mean(height, na.rm = TRUE)
  )

avg_height

# A tibble: 38 × 2
   species   avg_height
   <chr>          <dbl>
 1 Aleena           79 
 2 Besalisk        198 
 3 Cerean          198 
 4 Chagrian        196 
 5 Clawdite        168 
 6 Droid           131.
 7 Dug             112 
 8 Ewok             88 
 9 Geonosian       183 
10 Gungan          209.
# ℹ 28 more rows

In another example, we use group_by and mutate to create a new column mean_grouped, which stores the average height for each species directly within the dataset. This doesn’t modify the level of the dataset.

starwars |> 
  group_by(species) |> 
  mutate(
    mean_grouped = mean(height, na.rm = TRUE)
  )

# A tibble: 87 × 16
# Groups:   species [38]
   name     height  mass hair_color skin_color eye_color birth_year sex   gender
   <chr>     <int> <dbl> <chr>      <chr>      <chr>          <dbl> <chr> <chr> 
 1 Luke Sk…    172    77 blond      fair       blue            19   male  mascu…
 2 C-3PO       167    75 <NA>       gold       yellow         112   none  mascu…
 3 R2-D2        96    32 <NA>       white, bl… red             33   none  mascu…
 4 Darth V…    202   136 none       white      yellow          41.9 male  mascu…
 5 Leia Or…    150    49 brown      light      brown           19   fema… femin…
 6 Owen La…    178   120 brown, gr… light      blue            52   male  mascu…
 7 Beru Wh…    165    75 brown      light      blue            47   fema… femin…
 8 R5-D4        97    32 <NA>       white, red red             NA   none  mascu…
 9 Biggs D…    183    84 black      light      brown           24   male  mascu…
10 Obi-Wan…    182    77 auburn, w… fair       blue-gray       57   male  mascu…
# ℹ 77 more rows
# ℹ 7 more variables: homeworld <chr>, species <chr>, films <list>,
#   vehicles <list>, starships <list>, bmi <dbl>, mean_grouped <dbl>
…
