🏠 API209: Summer Math Camp – Week 04 RECAP & Quarto
…
Loading packages and data

So our first chunk (or lines of code) should look like this:

−+

00:30

library(tidyverse)

We can call the starwars dataset by its name.

starwars

# A tibble: 87 × 14
   name     height  mass hair_color skin_color eye_color birth_year sex   gender
   <chr>     <int> <dbl> <chr>      <chr>      <chr>          <dbl> <chr> <chr> 
 1 Luke Sk…    172    77 blond      fair       blue            19   male  mascu…
 2 C-3PO       167    75 <NA>       gold       yellow         112   none  mascu…
 3 R2-D2        96    32 <NA>       white, bl… red             33   none  mascu…
 4 Darth V…    202   136 none       white      yellow          41.9 male  mascu…
 5 Leia Or…    150    49 brown      light      brown           19   fema… femin…
 6 Owen La…    178   120 brown, gr… light      blue            52   male  mascu…
 7 Beru Wh…    165    75 brown      light      blue            47   fema… femin…
 8 R5-D4        97    32 <NA>       white, red red             NA   none  mascu…
 9 Biggs D…    183    84 black      light      brown           24   male  mascu…
10 Obi-Wan…    182    77 auburn, w… fair       blue-gray       57   male  mascu…
# ℹ 77 more rows
# ℹ 5 more variables: homeworld <chr>, species <chr>, films <list>,
#   vehicles <list>, starships <list>
…
avg_height

Grouping and Summarizing Data

Now, imagine we would like to know the average height by species in this universe. How do we do it?

# Group by species and summarize average height
avg_height <- starwars |> 
  group_by(species) |> 
  summarise(avg_height = mean(height, na.rm = TRUE))
avg_height

# A tibble: 38 × 2
   species   avg_height
   <chr>          <dbl>
 1 Aleena           79 
 2 Besalisk        198 
 3 Cerean          198 
 4 Chagrian        196 
 5 Clawdite        168 
 6 Droid           131.
 7 Dug             112 
 8 Ewok             88 
 9 Geonosian       183 
10 Gungan          209.
# ℹ 28 more rows
…
Quarto Tip 3: Code and Answer Boxes

In your problem set, you’ll often see two boxes:

Your code here: This is where you’ll write and run your R code.

Your answer here: This is where you’ll explain your results or interpretations in plain text.

Example:

# Your code here
starwars |> 
  select(name, height)

# A tibble: 87 × 2
   name               height
   <chr>               <int>
 1 Luke Skywalker        172
 2 C-3PO                 167
 3 R2-D2                  96
 4 Darth Vader           202
 5 Leia Organa           150
 6 Owen Lars             178
 7 Beru Whitesun Lars    165
 8 R5-D4                  97
 9 Biggs Darklighter     183
10 Obi-Wan Kenobi        182
# ℹ 77 more rows
…
