R Lesson: Data Manipulation in R
…
# Filter and select
filtered_data <- starwars |> 
  filter(height > 180) |> 
  select(name, height, hair_color)

filtered_data
```
]

.pull-right[

```
## # A tibble: 39 × 3
##    name              height hair_color   
##    <chr>              <int> <chr>        
##  1 Darth Vader          202 none         
##  2 Biggs Darklighter    183 black        
##  3 Obi-Wan Kenobi       182 auburn, white
##  4 Anakin Skywalker     188 blond        
##  5 Chewbacca            228 brown        
##  6 Boba Fett            183 black        
##  7 IG-88                200 none         
##  8 Bossk                190 none         
##  9 Qui-Gon Jinn         193 brown        
## 10 Nute Gunray          191 none         
## # ℹ 29 more rows
```
…
